{
  "id": 12,
  "name": "butterfree",
  "base_experience": 178,
  "height": 11,
  "is_default": true,
  "order": 16,
  "weight": 320,
  "abilities": [
    {
      "is_hidden": true,
      "slot": 3,
      "ability": {
        "name": "tinted-lens"
      }
    }
  ],
  "forms": [
    {
      "name": "butterfree"
    }
  ],
  "game_indices": [
    {
      "game_index": 12,
      "version": {
        "name": "white-2"
      }
    }
  ],
  "held_items": [
    {
      "item": {
        "name": "silver-powder"
      },
      "version_details": [
        {
          "rarity": 5,
          "version": {
            "name": "y"
          }
        }
      ]
    }
  ],
  "moves": [
    {
      "move": {
        "name": "flash"
      },
      "version_group_details": [
        {
          "level_learned_at": 0,
          "version_group": {
            "name": "x-y"
          },
          "move_learn_method": {
            "name": "machine"
          }
        }
      ]
    }
  ],
  "species": {
    "name": "butterfree"
  },
  "sprites": {
    "back_female": "http://pokeapi.co/media/sprites/pokemon/back/female/12.png",
    "back_shiny_female": "http://pokeapi.co/media/sprites/pokemon/back/shiny/female/12.png",
    "back_default": "http://pokeapi.co/media/sprites/pokemon/back/12.png",
    "front_female": "http://pokeapi.co/media/sprites/pokemon/female/12.png",
    "front_shiny_female": "http://pokeapi.co/media/sprites/pokemon/shiny/female/12.png",
    "back_shiny": "http://pokeapi.co/media/sprites/pokemon/back/shiny/12.png",
    "front_default": "http://pokeapi.co/media/sprites/pokemon/12.png",
    "front_shiny": "http://pokeapi.co/media/sprites/pokemon/shiny/12.png",
    "other": {
      "dream_world": {},
      "official-artwork": {}
    },
    "versions": {
      "generation-i": {
        "red-blue": {},
        "yellow": {}
      },
      "generation-ii": {
        "crystal": {},
        "gold": {},
        "silver": {}
      },
      "generation-iii": {
        "emerald": {},
        "firered-leafgreen": {},
        "ruby-sapphire": {}
      },
      "generation-iv": {
        "diamond-pearl": {},
        "heartgold-soulsilver": {},
        "platinum": {}
      },
      "generation-v": {
        "black-white": {}
      },
      "generation-vi": {
        "omegaruby-alphasapphire": {},
        "x-y": {}
      },
      "generation-vii": {
        "icons": {},
        "ultra-sun-ultra-moon": {}
      },
      "generation-viii": {
        "icons": {}
      }
    }
  },
  "stats": [
    {
      "base_stat": 70,
      "effort": 0,
      "stat": {
        "name": "speed"
      }
    }
  ],
  "types": [
    {
      "slot": 2,
      "type": {
        "name": "flying"
      }
    }
  ]
}
